{
 "args": [
  [
   "./build/Benchmark/dxexmachina_devstone",
   "opdevs",
   "-c",
   64,
   "",
   "-w",
   10,
   "-d",
   10,
   "-t",
   500000
  ],
  [
   "./build/Benchmark/dxexmachina_devstone",
   "opdevs",
   "-c",
   64,
   "",
   "-w",
   20,
   "-d",
   20,
   "-t",
   500000
  ],
  [
   "./build/Benchmark/dxexmachina_devstone",
   "opdevs",
   "-c",
   64,
   "",
   "-w",
   30,
   "-d",
   30,
   "-t",
   500000
  ],
  [
   "./build/Benchmark/dxexmachina_devstone",
   "opdevs",
   "-c",
   64,
   "",
   "-w",
   40,
   "-d",
   40,
   "-t",
   500000
  ]
 ],
 "results": [
  {
   "CPU-migrations": {
    "extra": {
     "unit": "M/sec",
     "value": [
      0.0,
      0.0,
      0.0,
      0.0,
      0.0,
      0.0,
      0.0,
      0.0,
      0.0,
      0.0,
      0.0,
      0.0,
      0.0,
      0.0,
      0.0
     ]
    },
    "unit": null,
    "value": [
     2733.0,
     2121.0,
     2425.0,
     2514.0,
     2556.0,
     2692.0,
     2519.0,
     2344.0,
     2281.0,
     2355.0,
     2019.0,
     2462.0,
     2994.0,
     1934.0,
     2641.0
    ]
   },
   "branch-misses": {
    "extra": {
     "unit": "of all branches         [83.42%]",
     "value": [
      0.009399999999999999,
      0.009399999999999999,
      0.009300000000000001,
      0.0096,
      0.009300000000000001,
      0.0098,
      0.0101,
      0.0092,
      0.0096,
      0.009300000000000001,
      0.009000000000000001,
      0.0097,
      0.0095,
      0.009399999999999999,
      0.009000000000000001
     ]
    },
    "unit": null,
    "value": [
     53041078.0,
     54743690.0,
     52454056.0,
     53950239.0,
     54161803.0,
     57760210.0,
     54811778.0,
     52397899.0,
     53345788.0,
     54607861.0,
     52402523.0,
     55729757.0,
     54257368.0,
     54350091.0,
     52096892.0
    ]
   },
   "branches": {
    "extra": {
     "unit": "M/sec                   [66.71%]",
     "value": [
      48.691,
      48.868,
      50.82,
      54.751,
      51.919,
      45.856,
      50.084,
      50.653,
      50.401,
      52.086,
      51.815,
      49.515,
      49.627,
      50.441,
      53.655
     ]
    },
    "unit": null,
    "value": [
     5645099785.0,
     5799181908.0,
     5612213600.0,
     5643931220.0,
     5834944814.0,
     5890242030.0,
     5445490956.0,
     5713739397.0,
     5544984725.0,
     5894973680.0,
     5802382704.0,
     5739678307.0,
     5727235978.0,
     5797542564.0,
     5805084259.0
    ]
   },
   "context-switches": {
    "extra": {
     "unit": "M/sec",
     "value": [
      0.001,
      0.001,
      0.001,
      0.001,
      0.001,
      0.001,
      0.001,
      0.001,
      0.001,
      0.001,
      0.001,
      0.001,
      0.001,
      0.001,
      0.001
     ]
    },
    "unit": null,
    "value": [
     76262.0,
     79704.0,
     76830.0,
     74636.0,
     75774.0,
     81379.0,
     75447.0,
     76819.0,
     77340.0,
     77091.0,
     77757.0,
     79529.0,
     78168.0,
     77602.0,
     76116.0
    ]
   },
   "cycles": {
    "extra": {
     "unit": "GHz                     [83.35%]",
     "value": [
      2.254,
      2.249,
      2.245,
      2.221,
      2.242,
      2.267,
      2.22,
      2.24,
      2.239,
      2.234,
      2.239,
      2.253,
      2.262,
      2.248,
      2.221
     ]
    },
    "unit": null,
    "value": [
     261348581247.0,
     266906624952.0,
     247922680258.0,
     228927216206.0,
     251942777928.0,
     291225401786.0,
     241351912686.0,
     252640798438.0,
     246316770689.0,
     252786169232.0,
     250686143256.0,
     261160607902.0,
     261077245304.0,
     258422351833.0,
     240261658885.0
    ]
   },
   "instructions": {
    "extra": {
     "unit": "insns per cycle",
     "value": [
      0.08,
      0.08,
      0.08,
      0.09,
      0.08,
      0.07,
      0.08,
      0.08,
      0.08,
      0.09,
      0.08,
      0.08,
      0.08,
      0.08,
      0.09
     ]
    },
    "unit": null,
    "value": [
     20764660034.0,
     21280136726.0,
     20572289816.0,
     20687511543.0,
     21383089280.0,
     21633791723.0,
     19953775554.0,
     20977451101.0,
     20328251951.0,
     21570662209.0,
     21268601900.0,
     21127384191.0,
     21051414768.0,
     21226440045.0,
     21228020140.0
    ]
   },
   "page-faults": {
    "extra": {
     "unit": "M/sec",
     "value": [
      0.0,
      0.0,
      0.0,
      0.0,
      0.0,
      0.0,
      0.0,
      0.0,
      0.0,
      0.0,
      0.0,
      0.0,
      0.0,
      0.0,
      0.0
     ]
    },
    "unit": null,
    "value": [
     23560.0,
     23580.0,
     23573.0,
     23559.0,
     23553.0,
     23607.0,
     23567.0,
     23569.0,
     23561.0,
     23568.0,
     23568.0,
     23597.0,
     23594.0,
     23575.0,
     23565.0
    ]
   },
   "stalled-cycles-backend": {
    "extra": {
     "unit": "backend  cycles idle    [33.31%]",
     "value": [
      0.1232,
      0.0944,
      0.10039999999999999,
      0.0966,
      0.10339999999999999,
      0.10439999999999999,
      0.09910000000000001,
      0.094,
      0.0861,
      0.0929,
      0.0873,
      0.0863,
      0.0998,
      0.1099,
      0.0946
     ]
    },
    "unit": null,
    "value": [
     32204226861.0,
     25187652038.0,
     24898356772.0,
     22125699664.0,
     26060286690.0,
     30395850897.0,
     23929599150.0,
     23739423897.0,
     21208496317.0,
     23483470755.0,
     21885229747.0,
     22550080858.0,
     26061940946.0,
     28397841009.0,
     22735024332.0
    ]
   },
   "stalled-cycles-frontend": {
    "extra": {
     "unit": "frontend cycles idle    [83.35%]",
     "value": [
      0.7006999999999999,
      0.7417,
      0.7390000000000001,
      0.7411,
      0.7306999999999999,
      0.7432,
      0.7375,
      0.745,
      0.7668,
      0.7479,
      0.7565999999999999,
      0.7626000000000001,
      0.7426999999999999,
      0.7258,
      0.7474
     ]
    },
    "unit": null,
    "value": [
     183136477523.0,
     197968651010.0,
     183216035423.0,
     169647320961.0,
     184096671707.0,
     216436353617.0,
     178004741755.0,
     188210174273.0,
     188869047172.0,
     189050689401.0,
     189660092037.0,
     199167435046.0,
     193889185153.0,
     187556480079.0,
     179565974989.0
    ]
   },
   "task-clock": {
    "extra": {
     "unit": "CPUs utilized",
     "value": [
      32.873,
      33.739,
      32.624,
      31.534,
      32.624,
      35.107,
      32.401,
      32.86,
      32.852,
      32.956,
      32.819,
      33.792,
      33.802,
      33.073,
      32.329
     ]
    },
    "unit": null,
    "value": [
     115936.26823,
     118671.277624,
     110433.338541,
     103083.945674,
     112386.569613,
     128450.429365,
     108727.540524,
     112802.1092,
     110017.426659,
     113177.308905,
     111982.415603,
     115918.569615,
     115406.06935,
     114937.16742,
     108191.813365
    ]
   },
   "time-elapsed": {
    "unit": "seconds",
    "value": [
     3.526764274,
     3.517315008,
     3.385005248,
     3.268987665,
     3.444927649,
     3.658839657,
     3.355687907,
     3.432791494,
     3.348872126,
     3.434150027,
     3.412092555,
     3.430332184,
     3.41420163,
     3.475255865,
     3.346548687
    ]
   }
  },
  {
   "CPU-migrations": {
    "extra": {
     "unit": "M/sec",
     "value": [
      0.0,
      0.0,
      0.0,
      0.0,
      0.0,
      0.0,
      0.0,
      0.0,
      0.0,
      0.0,
      0.0,
      0.0,
      0.0,
      0.0,
      0.0
     ]
    },
    "unit": null,
    "value": [
     7733.0,
     8008.0,
     6627.0,
     8014.0,
     7163.0,
     7930.0,
     6879.0,
     7599.0,
     7083.0,
     6916.0,
     6778.0,
     6586.0,
     6854.0,
     7368.0,
     6261.0
    ]
   },
   "branch-misses": {
    "extra": {
     "unit": "of all branches         [83.29%]",
     "value": [
      0.0113,
      0.0121,
      0.011699999999999999,
      0.0116,
      0.0126,
      0.0113,
      0.011399999999999999,
      0.0111,
      0.0121,
      0.0113,
      0.012,
      0.012,
      0.0113,
      0.0115,
      0.0118
     ]
    },
    "unit": null,
    "value": [
     198197688.0,
     207819105.0,
     214077840.0,
     208014136.0,
     225315104.0,
     200777981.0,
     200274118.0,
     196933708.0,
     208350668.0,
     204847073.0,
     211124099.0,
     207293141.0,
     200995332.0,
     207348359.0,
     207515534.0
    ]
   },
   "branches": {
    "extra": {
     "unit": "M/sec                   [66.68%]",
     "value": [
      43.637,
      42.098,
      43.127,
      41.023,
      42.045,
      44.68,
      42.402,
      43.585,
      42.119,
      42.373,
      42.544,
      42.576,
      43.929,
      43.476,
      42.479
     ]
    },
    "unit": null,
    "value": [
     17580226791.0,
     17173844616.0,
     18293482517.0,
     17903048092.0,
     17904121027.0,
     17737458881.0,
     17511745980.0,
     17819552409.0,
     17280934644.0,
     18128423622.0,
     17572404592.0,
     17312600881.0,
     17736663721.0,
     18089793462.0,
     17622172588.0
    ]
   },
   "context-switches": {
    "extra": {
     "unit": "M/sec",
     "value": [
      0.001,
      0.001,
      0.001,
      0.001,
      0.001,
      0.001,
      0.001,
      0.001,
      0.001,
      0.001,
      0.001,
      0.001,
      0.001,
      0.001,
      0.001
     ]
    },
    "unit": null,
    "value": [
     236035.0,
     244004.0,
     248390.0,
     247243.0,
     243391.0,
     241477.0,
     240900.0,
     244063.0,
     243429.0,
     243703.0,
     242358.0,
     246424.0,
     238949.0,
     246906.0,
     243499.0
    ]
   },
   "cycles": {
    "extra": {
     "unit": "GHz                     [83.35%]",
     "value": [
      2.424,
      2.426,
      2.43,
      2.426,
      2.43,
      2.426,
      2.429,
      2.424,
      2.423,
      2.434,
      2.427,
      2.427,
      2.426,
      2.428,
      2.429
     ]
    },
    "unit": null,
    "value": [
     976703931683.0,
     989756673935.0,
     1030813742339.0,
     1058592724991.0,
     1034630992037.0,
     963044177417.0,
     1003281473565.0,
     991029913861.0,
     993977228775.0,
     1041174551440.0,
     1002325932000.0,
     986741805833.0,
     979561038969.0,
     1010215388326.0,
     1007689937698.0
    ]
   },
   "instructions": {
    "extra": {
     "unit": "insns per cycle",
     "value": [
      0.07,
      0.07,
      0.07,
      0.07,
      0.07,
      0.07,
      0.07,
      0.07,
      0.07,
      0.07,
      0.07,
      0.07,
      0.07,
      0.07,
      0.07
     ]
    },
    "unit": null,
    "value": [
     68197781656.0,
     67194241043.0,
     71023093715.0,
     69547504456.0,
     69383877623.0,
     68766206915.0,
     67966221550.0,
     69166392473.0,
     67422638722.0,
     70256703732.0,
     68537707027.0,
     67413108862.0,
     68764062091.0,
     70308232549.0,
     68491415976.0
    ]
   },
   "page-faults": {
    "extra": {
     "unit": "M/sec",
     "value": [
      0.0,
      0.0,
      0.0,
      0.0,
      0.0,
      0.0,
      0.0,
      0.0,
      0.0,
      0.0,
      0.0,
      0.0,
      0.0,
      0.0,
      0.0
     ]
    },
    "unit": null,
    "value": [
     69685.0,
     69710.0,
     69721.0,
     69702.0,
     69717.0,
     69702.0,
     69679.0,
     69694.0,
     69703.0,
     69710.0,
     69704.0,
     69723.0,
     69718.0,
     69742.0,
     69719.0
    ]
   },
   "stalled-cycles-backend": {
    "extra": {
     "unit": "backend  cycles idle    [33.37%]",
     "value": [
      0.1609,
      0.1577,
      0.15130000000000002,
      0.1661,
      0.1562,
      0.1522,
      0.1593,
      0.1557,
      0.16399999999999998,
      0.1638,
      0.1629,
      0.156,
      0.1536,
      0.1509,
      0.15539999999999998
     ]
    },
    "unit": null,
    "value": [
     157113867080.0,
     156059936274.0,
     156009506429.0,
     175838891516.0,
     161567535022.0,
     146576857565.0,
     159860313243.0,
     154319634502.0,
     162963557935.0,
     170494758478.0,
     163292045647.0,
     153934565952.0,
     150499873111.0,
     152440285160.0,
     156574219775.0
    ]
   },
   "stalled-cycles-frontend": {
    "extra": {
     "unit": "frontend cycles idle    [83.29%]",
     "value": [
      0.6788,
      0.6827,
      0.6994,
      0.6717,
      0.6862999999999999,
      0.6908,
      0.6845,
      0.6893,
      0.6759999999999999,
      0.6808,
      0.6812,
      0.6881,
      0.6943,
      0.6939,
      0.6893
     ]
    },
    "unit": null,
    "value": [
     662940102560.0,
     675717874738.0,
     720972520764.0,
     711031652502.0,
     710117243357.0,
     665272474577.0,
     686785612989.0,
     683128027236.0,
     671929994129.0,
     708851126945.0,
     682774266820.0,
     678970146856.0,
     680095246229.0,
     700944115391.0,
     694598701899.0
    ]
   },
   "task-clock": {
    "extra": {
     "unit": "CPUs utilized",
     "value": [
      36.848,
      37.548,
      37.504,
      37.484,
      37.367,
      36.933,
      37.25,
      37.111,
      37.099,
      37.349,
      37.332,
      37.14,
      36.762,
      37.409,
      37.207
     ]
    },
    "unit": null,
    "value": [
     402877.080215,
     407950.607206,
     424173.367911,
     436412.110048,
     425835.36111,
     396990.340287,
     412990.008857,
     408848.702933,
     410293.183108,
     427831.599679,
     413038.416357,
     406632.1791,
     403754.070214,
     416090.161603,
     414846.733784
    ]
   },
   "time-elapsed": {
    "unit": "seconds",
    "value": [
     10.933548173,
     10.864765257,
     11.310190802,
     11.642491131,
     11.396011738,
     10.748887101,
     11.086931599,
     11.016946342,
     11.059557316,
     11.455105756,
     11.063862575,
     10.948716997,
     10.98292163,
     11.122635305,
     11.149679856
    ]
   }
  },
  {
   "CPU-migrations": {
    "extra": {
     "unit": "M/sec",
     "value": [
      0.0,
      0.0,
      0.0,
      0.0,
      0.0,
      0.0,
      0.0,
      0.0,
      0.0,
      0.0,
      0.0,
      0.0,
      0.0,
      0.0,
      0.0
     ]
    },
    "unit": null,
    "value": [
     5903.0,
     6254.0,
     7086.0,
     6430.0,
     6117.0,
     7190.0,
     6630.0,
     7907.0,
     5793.0,
     6909.0,
     7355.0,
     7931.0,
     6523.0,
     8790.0,
     8996.0
    ]
   },
   "branch-misses": {
    "extra": {
     "unit": "of all branches         [83.33%]",
     "value": [
      0.0086,
      0.0084,
      0.0088,
      0.008199999999999999,
      0.0083,
      0.0085,
      0.0091,
      0.009899999999999999,
      0.008,
      0.0088,
      0.0089,
      0.0092,
      0.0085,
      0.0092,
      0.0104
     ]
    },
    "unit": null,
    "value": [
     375865833.0,
     375717145.0,
     386730496.0,
     358948655.0,
     356276390.0,
     394988799.0,
     427079377.0,
     485624703.0,
     359747034.0,
     379248835.0,
     425281032.0,
     453003371.0,
     389271142.0,
     444426407.0,
     551792852.0
    ]
   },
   "branches": {
    "extra": {
     "unit": "M/sec                   [66.66%]",
     "value": [
      55.991,
      55.812,
      55.005,
      61.308,
      56.26,
      53.286,
      46.294,
      40.594,
      58.718,
      56.252,
      46.309,
      43.952,
      54.578,
      46.976,
      42.269
     ]
    },
    "unit": null,
    "value": [
     43681416425.0,
     44891433475.0,
     43899810558.0,
     43826260526.0,
     43121280632.0,
     46233097529.0,
     46699592704.0,
     49214341982.0,
     44813334597.0,
     43020686532.0,
     47895861870.0,
     49149874574.0,
     45692885488.0,
     48107189553.0,
     52883408402.0
    ]
   },
   "context-switches": {
    "extra": {
     "unit": "M/sec",
     "value": [
      0.0,
      0.0,
      0.0,
      0.0,
      0.0,
      0.0,
      0.0,
      0.0,
      0.0,
      0.0,
      0.0,
      0.0,
      0.0,
      0.0,
      0.0
     ]
    },
    "unit": null,
    "value": [
     299886.0,
     296924.0,
     297227.0,
     286630.0,
     286280.0,
     312892.0,
     334895.0,
     361898.0,
     288234.0,
     297082.0,
     330026.0,
     349827.0,
     306229.0,
     341308.0,
     430861.0
    ]
   },
   "cycles": {
    "extra": {
     "unit": "GHz                     [83.32%]",
     "value": [
      2.499,
      2.485,
      2.463,
      2.512,
      2.508,
      2.504,
      2.474,
      2.477,
      2.524,
      2.504,
      2.497,
      2.488,
      2.499,
      2.489,
      2.47
     ]
    },
    "unit": null,
    "value": [
     1949426145028.0,
     1999010946428.0,
     1965918887476.0,
     1796024970778.0,
     1922320200964.0,
     2172721224442.0,
     2495912254417.0,
     3002724219891.0,
     1926506740360.0,
     1915388149536.0,
     2583008454174.0,
     2782427388425.0,
     2092334234763.0,
     2548771511229.0,
     3089738730334.0
    ]
   },
   "instructions": {
    "extra": {
     "unit": "insns per cycle",
     "value": [
      0.09,
      0.09,
      0.09,
      0.1,
      0.09,
      0.08,
      0.07,
      0.07,
      0.09,
      0.09,
      0.07,
      0.07,
      0.09,
      0.08,
      0.07
     ]
    },
    "unit": null,
    "value": [
     174030662605.0,
     178569812032.0,
     174685891123.0,
     173985327635.0,
     170785470070.0,
     184242004303.0,
     186765572476.0,
     197882883084.0,
     177844897474.0,
     171027580449.0,
     191126844983.0,
     197033284401.0,
     181631075027.0,
     192970533923.0,
     215785312532.0
    ]
   },
   "page-faults": {
    "extra": {
     "unit": "M/sec",
     "value": [
      0.0,
      0.0,
      0.0,
      0.0,
      0.0,
      0.0,
      0.0,
      0.0,
      0.0,
      0.0,
      0.0,
      0.0,
      0.0,
      0.0,
      0.0
     ]
    },
    "unit": null,
    "value": [
     97025.0,
     93716.0,
     95313.0,
     94384.0,
     91418.0,
     98112.0,
     101721.0,
     104688.0,
     92216.0,
     95760.0,
     100149.0,
     102632.0,
     96491.0,
     103432.0,
     128196.0
    ]
   },
   "stalled-cycles-backend": {
    "extra": {
     "unit": "backend  cycles idle    [33.35%]",
     "value": [
      0.4904,
      0.5423,
      0.4882,
      0.5207,
      0.5275,
      0.5131,
      0.49689999999999995,
      0.45289999999999997,
      0.5353,
      0.4979,
      0.5161,
      0.4778,
      0.5189,
      0.5077,
      0.4338
     ]
    },
    "unit": null,
    "value": [
     956052809924.0,
     1084082835386.0,
     959783770415.0,
     935154198717.0,
     1014078746627.0,
     1114820599952.0,
     1240225205963.0,
     1359808428814.0,
     1031323639304.0,
     953594759332.0,
     1333018640392.0,
     1329524733867.0,
     1085757995614.0,
     1294136281717.0,
     1340427082919.0
    ]
   },
   "stalled-cycles-frontend": {
    "extra": {
     "unit": "frontend cycles idle    [83.33%]",
     "value": [
      0.40509999999999996,
      0.36310000000000003,
      0.40700000000000003,
      0.3782,
      0.37020000000000003,
      0.3766,
      0.39640000000000003,
      0.3898,
      0.36619999999999997,
      0.40020000000000006,
      0.35850000000000004,
      0.371,
      0.3766,
      0.38270000000000004,
      0.4008
     ]
    },
    "unit": null,
    "value": [
     789715524783.0,
     725783966901.0,
     800035380274.0,
     679276829087.0,
     711596964184.0,
     818334863162.0,
     989426526985.0,
     1170374630386.0,
     705525642944.0,
     766548735979.0,
     925913244008.0,
     1032365710162.0,
     787917004290.0,
     975509851016.0,
     1238371099360.0
    ]
   },
   "task-clock": {
    "extra": {
     "unit": "CPUs utilized",
     "value": [
      22.912,
      22.615,
      22.218,
      20.806,
      22.927,
      23.091,
      25.828,
      29.053,
      21.479,
      22.421,
      25.825,
      28.317,
      22.385,
      25.247,
      29.179
     ]
    },
    "unit": null,
    "value": [
     780157.616902,
     804336.797864,
     798108.705275,
     714857.687486,
     766459.347103,
     867642.931848,
     1008770.465733,
     1212369.005292,
     763193.903947,
     764789.688685,
     1034257.331822,
     1118263.033864,
     837200.689837,
     1024088.307411,
     1251123.846431
    ]
   },
   "time-elapsed": {
    "unit": "seconds",
    "value": [
     34.050804778,
     35.566611901,
     35.922261724,
     34.358542516,
     33.429980853,
     37.574875994,
     39.057080549,
     41.729337147,
     35.532865942,
     34.110979468,
     40.048485721,
     39.490703903,
     37.400478643,
     40.56281898,
     42.877364274
    ]
   }
  },
  {
   "CPU-migrations": {
    "extra": {
     "unit": "M/sec",
     "value": [
      0.0,
      0.0,
      0.0,
      0.0,
      0.0,
      0.0,
      0.0,
      0.0,
      0.0,
      0.0,
      0.0,
      0.0,
      0.0,
      0.0,
      0.0
     ]
    },
    "unit": null,
    "value": [
     2537.0,
     2044.0,
     3419.0,
     2233.0,
     1879.0,
     2802.0,
     2500.0,
     3315.0,
     2032.0,
     2051.0,
     2719.0,
     2195.0,
     1955.0,
     2333.0,
     1591.0
    ]
   },
   "branch-misses": {
    "extra": {
     "unit": "of all branches         [83.34%]",
     "value": [
      0.006500000000000001,
      0.0067,
      0.0063,
      0.0064,
      0.0062,
      0.0064,
      0.0062,
      0.0068000000000000005,
      0.0063,
      0.006500000000000001,
      0.006500000000000001,
      0.0064,
      0.0063,
      0.0066,
      0.0059
     ]
    },
    "unit": null,
    "value": [
     267729195.0,
     255337065.0,
     251756221.0,
     252754526.0,
     248801424.0,
     257823578.0,
     245742803.0,
     265061729.0,
     256386407.0,
     255573109.0,
     264602859.0,
     250636620.0,
     252188757.0,
     267229905.0,
     219220318.0
    ]
   },
   "branches": {
    "extra": {
     "unit": "M/sec                   [66.66%]",
     "value": [
      92.894,
      93.01,
      91.856,
      92.675,
      97.367,
      95.214,
      95.424,
      90.58,
      97.31,
      96.849,
      97.775,
      100.778,
      96.765,
      95.842,
      103.296
     ]
    },
    "unit": null,
    "value": [
     41395549262.0,
     38224369224.0,
     40001998216.0,
     39588034652.0,
     40375532968.0,
     40235354352.0,
     39576498027.0,
     39081770833.0,
     40722208319.0,
     39609890218.0,
     40672482583.0,
     39339635650.0,
     39946855293.0,
     40229231822.0,
     37373172908.0
    ]
   },
   "context-switches": {
    "extra": {
     "unit": "M/sec",
     "value": [
      0.001,
      0.001,
      0.001,
      0.001,
      0.001,
      0.001,
      0.001,
      0.001,
      0.001,
      0.001,
      0.001,
      0.001,
      0.001,
      0.001,
      0.001
     ]
    },
    "unit": null,
    "value": [
     264250.0,
     265677.0,
     261936.0,
     264998.0,
     251358.0,
     264107.0,
     252229.0,
     267744.0,
     254337.0,
     262299.0,
     268502.0,
     256774.0,
     258354.0,
     275883.0,
     235701.0
    ]
   },
   "cycles": {
    "extra": {
     "unit": "GHz                     [83.32%]",
     "value": [
      2.589,
      2.553,
      2.615,
      2.577,
      2.631,
      2.58,
      2.611,
      2.584,
      2.595,
      2.563,
      2.549,
      2.521,
      2.589,
      2.553,
      2.588
     ]
    },
    "unit": null,
    "value": [
     1153689005135.0,
     1049298911728.0,
     1138752604403.0,
     1100811785411.0,
     1090855174917.0,
     1090167917867.0,
     1083099088904.0,
     1115019379709.0,
     1086112208914.0,
     1048184148456.0,
     1060160296954.0,
     983929620420.0,
     1068911520625.0,
     1071563053859.0,
     936386083176.0
    ]
   },
   "instructions": {
    "extra": {
     "unit": "insns per cycle",
     "value": [
      0.14,
      0.15,
      0.14,
      0.14,
      0.15,
      0.15,
      0.14,
      0.14,
      0.15,
      0.15,
      0.15,
      0.16,
      0.15,
      0.15,
      0.16
     ]
    },
    "unit": null,
    "value": [
     164839457601.0,
     153135319944.0,
     158308628751.0,
     156811486429.0,
     159289682439.0,
     159650175769.0,
     155991267825.0,
     156526282938.0,
     161567497370.0,
     157057694226.0,
     162086974545.0,
     156799889654.0,
     158160285623.0,
     160653192544.0,
     145747617433.0
    ]
   },
   "page-faults": {
    "extra": {
     "unit": "M/sec",
     "value": [
      0.0,
      0.0,
      0.0,
      0.0,
      0.0,
      0.0,
      0.0,
      0.0,
      0.0,
      0.0,
      0.0,
      0.0,
      0.0,
      0.0,
      0.0
     ]
    },
    "unit": null,
    "value": [
     110249.0,
     111281.0,
     108760.0,
     111043.0,
     105527.0,
     110235.0,
     104716.0,
     111198.0,
     105606.0,
     110417.0,
     112083.0,
     107455.0,
     108070.0,
     115468.0,
     100674.0
    ]
   },
   "stalled-cycles-backend": {
    "extra": {
     "unit": "backend  cycles idle    [33.35%]",
     "value": [
      0.46950000000000003,
      0.43189999999999995,
      0.47130000000000005,
      0.4551,
      0.4738,
      0.451,
      0.45520000000000005,
      0.45289999999999997,
      0.44630000000000003,
      0.4435,
      0.43479999999999996,
      0.3953,
      0.4522,
      0.43310000000000004,
      0.4115
     ]
    },
    "unit": null,
    "value": [
     541693584918.0,
     453201147059.0,
     536702363330.0,
     500940408885.0,
     516892884297.0,
     491712053509.0,
     493007345277.0,
     504967938002.0,
     484710541254.0,
     464821269948.0,
     460908413359.0,
     388989466185.0,
     483407951475.0,
     464130819662.0,
     385306548019.0
    ]
   },
   "stalled-cycles-frontend": {
    "extra": {
     "unit": "frontend cycles idle    [83.34%]",
     "value": [
      0.4064,
      0.4378,
      0.4069,
      0.42060000000000003,
      0.4007,
      0.4208,
      0.42100000000000004,
      0.4199,
      0.4224,
      0.426,
      0.43170000000000003,
      0.4653,
      0.41960000000000003,
      0.4304,
      0.45299999999999996
     ]
    },
    "unit": null,
    "value": [
     468847943054.0,
     459394765519.0,
     463413060589.0,
     463032200534.0,
     437075274260.0,
     458704166159.0,
     456021102464.0,
     468244918445.0,
     458827598616.0,
     446536632532.0,
     457674663999.0,
     457800051080.0,
     448567136786.0,
     461160356635.0,
     424228602105.0
    ]
   },
   "task-clock": {
    "extra": {
     "unit": "CPUs utilized",
     "value": [
      13.779,
      13.975,
      14.202,
      14.024,
      13.237,
      13.57,
      13.45,
      14.221,
      13.58,
      13.624,
      13.684,
      13.69,
      13.34,
      14.189,
      12.522
     ]
    },
    "unit": null,
    "value": [
     445620.62128,
     410968.716615,
     435486.371428,
     427172.535116,
     414675.274462,
     422576.153081,
     414743.822192,
     431460.226599,
     418480.648179,
     408985.788402,
     415981.097251,
     390360.855565,
     412823.050706,
     419747.288913,
     361807.287725
    ]
   },
   "time-elapsed": {
    "unit": "seconds",
    "value": [
     32.341621924,
     29.408101837,
     30.664252486,
     30.460544571,
     31.327968483,
     31.140276883,
     30.836010064,
     30.339373111,
     30.815647599,
     30.020368625,
     30.399086211,
     28.514865285,
     30.946422684,
     29.582339849,
     28.893637584
    ]
   }
  }
 ]
}