 "command";"executable";"width";"depth";"end time" ;"CPU-migrations";"CPU-migrations (M/sec)";"branch-misses";"branch-misses (of all branches         [83.94%])";"branches";"branches (M/sec                   [67.98%])";"context-switches";"context-switches (M/sec)";"cycles";"cycles (GHz                     [80.14%])";"instructions";"instructions (insns per cycle)";"page-faults";"page-faults (M/sec)";"stalled-cycles-backend";"stalled-cycles-backend (backend  cycles idle    [35.93%])";"stalled-cycles-frontend";"stalled-cycles-frontend (frontend cycles idle    [84.03%])";"task-clock";"task-clock (CPUs utilized)";"time-elapsed (seconds)"
"./build/Benchmark/dxexmachina_devstone classic  -w 10 -d 10 -t 500000";"dxexmachina_devstone";10;10;500000;0.0;0.0;380827.0;0.0089;42768095.0;389.133;9.0;0.0;295845196.0;2.692;272791313.0;0.92;627.0;0.006;169322169.0;0.5722999999999999;8139782.0;0.0275;109.906044;0.993;0.110704562
"./build/Benchmark/dxexmachina_devstone classic  -w 10 -d 10 -t 500000";"dxexmachina_devstone";10;10;500000;0.0;0.0;372714.0;0.0089;42015717.0;399.685;9.0;0.0;299916915.0;2.853;257242781.0;0.86;626.0;0.006;168024671.0;0.5602;7500057.0;0.025;105.122096;0.993;0.105886659
"./build/Benchmark/dxexmachina_devstone classic  -w 10 -d 10 -t 500000";"dxexmachina_devstone";10;10;500000;0.0;0.0;334798.0;0.008100000000000001;41448263.0;393.778;9.0;0.0;297222898.0;2.824;263210458.0;0.89;627.0;0.006;171697534.0;0.5777;7218482.0;0.024300000000000002;105.257858;0.993;0.105956651
"./build/Benchmark/dxexmachina_devstone classic  -w 10 -d 10 -t 500000";"dxexmachina_devstone";10;10;500000;0.0;0.0;360696.0;0.0085;42472587.0;411.876;8.0;0.0;301975164.0;2.928;261653195.0;0.87;626.0;0.006;161375301.0;0.5344;7704970.0;0.0255;103.119854;0.993;0.10388046
"./build/Benchmark/dxexmachina_devstone classic  -w 10 -d 10 -t 500000";"dxexmachina_devstone";10;10;500000;0.0;0.0;372251.0;0.009000000000000001;41198349.0;394.233;9.0;0.0;296381333.0;2.836;261347667.0;0.88;627.0;0.006;169813372.0;0.573;6909145.0;0.0233;104.502478;0.993;0.105266979
"./build/Benchmark/dxexmachina_devstone classic  -w 10 -d 10 -t 500000";"dxexmachina_devstone";10;10;500000;0.0;0.0;370145.0;0.0087;42520642.0;401.041;10.0;0.0;296914152.0;2.8;262251010.0;0.88;626.0;0.006;169821269.0;0.5720000000000001;7582959.0;0.0255;106.025673;0.984;0.107751039
"./build/Benchmark/dxexmachina_devstone classic  -w 10 -d 10 -t 500000";"dxexmachina_devstone";10;10;500000;0.0;0.0;358602.0;0.0085;42079266.0;403.722;8.0;0.0;298960754.0;2.868;258431759.0;0.86;627.0;0.006;169039608.0;0.5654;7301158.0;0.024399999999999998;104.228449;0.993;0.104932456
"./build/Benchmark/dxexmachina_devstone classic  -w 10 -d 10 -t 500000";"dxexmachina_devstone";10;10;500000;0.0;0.0;376931.0;0.0092;41118793.0;389.624;9.0;0.0;299566732.0;2.839;260628439.0;0.87;626.0;0.006;168572609.0;0.5627;7112055.0;0.023700000000000002;105.534648;0.989;0.10673418
"./build/Benchmark/dxexmachina_devstone classic  -w 10 -d 10 -t 500000";"dxexmachina_devstone";10;10;500000;0.0;0.0;266300.0;0.0064;41427499.0;403.989;8.0;0.0;299112389.0;2.917;253870377.0;0.85;627.0;0.006;165795272.0;0.5543;6246716.0;0.0209;102.546011;0.993;0.103290577
"./build/Benchmark/dxexmachina_devstone classic  -w 10 -d 10 -t 500000";"dxexmachina_devstone";10;10;500000;0.0;0.0;251578.0;0.0060999999999999995;41376271.0;389.461;9.0;0.0;301143591.0;2.835;262834200.0;0.87;626.0;0.006;171785019.0;0.5704;7053606.0;0.023399999999999997;106.239891;0.993;0.107022594
"./build/Benchmark/dxexmachina_devstone classic  -w 10 -d 10 -t 500000";"dxexmachina_devstone";10;10;500000;0.0;0.0;370575.0;0.0088;42288627.0;388.214;9.0;0.0;301313022.0;2.766;265995691.0;0.88;627.0;0.006;177012310.0;0.5875;7125574.0;0.0236;108.931152;0.987;0.110370413
"./build/Benchmark/dxexmachina_devstone classic  -w 10 -d 10 -t 500000";"dxexmachina_devstone";10;10;500000;0.0;0.0;343513.0;0.008100000000000001;42241708.0;385.21;10.0;0.0;298541123.0;2.722;262120712.0;0.88;627.0;0.006;165792440.0;0.5553;8269425.0;0.0277;109.659048;0.993;0.110443112
"./build/Benchmark/dxexmachina_devstone classic  -w 10 -d 10 -t 500000";"dxexmachina_devstone";10;10;500000;0.0;0.0;366316.0;0.0088;41748829.0;391.93;9.0;0.0;297912660.0;2.797;265426164.0;0.89;626.0;0.006;173546360.0;0.5825;7401110.0;0.0248;106.521178;0.993;0.107306064
"./build/Benchmark/dxexmachina_devstone classic  -w 10 -d 10 -t 500000";"dxexmachina_devstone";10;10;500000;0.0;0.0;367186.0;0.0086;42483877.0;391.424;9.0;0.0;297321133.0;2.739;269359504.0;0.91;626.0;0.006;169419617.0;0.5698;7651224.0;0.025699999999999997;108.536856;0.993;0.109310445
"./build/Benchmark/dxexmachina_devstone classic  -w 10 -d 10 -t 500000";"dxexmachina_devstone";10;10;500000;0.0;0.0;383159.0;0.009000000000000001;42348198.0;424.128;9.0;0.0;301803108.0;3.023;264048488.0;0.87;626.0;0.006;164593860.0;0.5454;7091054.0;0.0235;99.847619;0.983;0.10158208
"./build/Benchmark/dxexmachina_devstone classic  -w 20 -d 20 -t 500000";"dxexmachina_devstone";20;20;500000;0.0;0.0;1574446.0;0.0098;160364655.0;395.13;34.0;0.0;1198886566.0;2.954;1008248201.0;0.84;928.0;0.002;739166423.0;0.6164999999999999;23563811.0;0.0197;405.852612;0.998;0.406780872
"./build/Benchmark/dxexmachina_devstone classic  -w 20 -d 20 -t 500000";"dxexmachina_devstone";20;20;500000;0.0;0.0;1604628.0;0.0098;162907784.0;412.143;33.0;0.0;1199245042.0;3.034;1028531294.0;0.86;928.0;0.002;728969672.0;0.6079;25080402.0;0.0209;395.270233;0.998;0.396213069
"./build/Benchmark/dxexmachina_devstone classic  -w 20 -d 20 -t 500000";"dxexmachina_devstone";20;20;500000;0.0;0.0;1581749.0;0.0098;162180094.0;405.502;34.0;0.0;1214957866.0;3.038;1013232312.0;0.83;928.0;0.002;745984492.0;0.614;22846135.0;0.018799999999999997;399.948945;0.997;0.401044423
"./build/Benchmark/dxexmachina_devstone classic  -w 20 -d 20 -t 500000";"dxexmachina_devstone";20;20;500000;0.0;0.0;1512941.0;0.009300000000000001;162272338.0;402.833;33.0;0.0;1197397118.0;2.972;1018255353.0;0.85;928.0;0.002;736579609.0;0.6152000000000001;23951987.0;0.02;402.828198;0.998;0.403772338
"./build/Benchmark/dxexmachina_devstone classic  -w 20 -d 20 -t 500000";"dxexmachina_devstone";20;20;500000;0.0;0.0;1582987.0;0.0097;162683529.0;408.327;33.0;0.0;1211051805.0;3.04;1026252376.0;0.85;928.0;0.002;743978297.0;0.6143;23241487.0;0.0192;398.414844;0.997;0.399784241
"./build/Benchmark/dxexmachina_devstone classic  -w 20 -d 20 -t 500000";"dxexmachina_devstone";20;20;500000;0.0;0.0;1572318.0;0.0097;162062765.0;409.761;33.0;0.0;1197041908.0;3.027;1030209767.0;0.86;928.0;0.002;733446233.0;0.6127;21856061.0;0.0183;395.505835;0.998;0.396428931
"./build/Benchmark/dxexmachina_devstone classic  -w 20 -d 20 -t 500000";"dxexmachina_devstone";20;20;500000;0.0;0.0;1260327.0;0.0077;163124564.0;414.08;32.0;0.0;1199209176.0;3.044;1032209629.0;0.86;929.0;0.002;727923996.0;0.607;22557349.0;0.018799999999999997;393.94503;0.998;0.394816448
"./build/Benchmark/dxexmachina_devstone classic  -w 20 -d 20 -t 500000";"dxexmachina_devstone";20;20;500000;0.0;0.0;1525120.0;0.009399999999999999;162639862.0;407.699;35.0;0.0;1201913049.0;3.013;1027924224.0;0.86;928.0;0.002;732310928.0;0.6093;24990145.0;0.0208;398.921726;0.998;0.39989889
"./build/Benchmark/dxexmachina_devstone classic  -w 20 -d 20 -t 500000";"dxexmachina_devstone";20;20;500000;0.0;0.0;1097416.0;0.0067;162622872.0;407.805;33.0;0.0;1200685745.0;3.011;1023945107.0;0.85;929.0;0.002;737326296.0;0.6141;20442858.0;0.017;398.775589;0.998;0.399724965
"./build/Benchmark/dxexmachina_devstone classic  -w 20 -d 20 -t 500000";"dxexmachina_devstone";20;20;500000;0.0;0.0;1586080.0;0.0097;163190651.0;416.497;32.0;0.0;1196921732.0;3.055;1032235731.0;0.86;928.0;0.002;728580488.0;0.6087;22160669.0;0.018500000000000003;391.81669;0.998;0.392682607
"./build/Benchmark/dxexmachina_devstone classic  -w 20 -d 20 -t 500000";"dxexmachina_devstone";20;20;500000;0.0;0.0;1587080.0;0.0098;161383889.0;399.607;34.0;0.0;1211375450.0;3.0;1015139532.0;0.84;929.0;0.002;746517169.0;0.6163000000000001;23842898.0;0.0197;403.856644;0.998;0.404762096
"./build/Benchmark/dxexmachina_devstone classic  -w 20 -d 20 -t 500000";"dxexmachina_devstone";20;20;500000;0.0;0.0;1505385.0;0.0092;163059673.0;414.221;33.0;0.0;1203814684.0;3.058;1031653671.0;0.86;928.0;0.002;735187709.0;0.6107;22204129.0;0.0184;393.653791;0.998;0.394515411
"./build/Benchmark/dxexmachina_devstone classic  -w 20 -d 20 -t 500000";"dxexmachina_devstone";20;20;500000;0.0;0.0;1553439.0;0.0096;162441597.0;410.07;33.0;0.0;1204807118.0;3.041;1027123775.0;0.85;928.0;0.002;734602568.0;0.6097;22612462.0;0.018799999999999997;396.131772;0.998;0.397078654
"./build/Benchmark/dxexmachina_devstone classic  -w 20 -d 20 -t 500000";"dxexmachina_devstone";20;20;500000;0.0;0.0;1514617.0;0.009300000000000001;163167026.0;407.848;33.0;0.0;1197110574.0;2.992;1026313781.0;0.86;928.0;0.002;740778526.0;0.6188;25088171.0;0.021;400.067889;0.996;0.401639435
"./build/Benchmark/dxexmachina_devstone classic  -w 20 -d 20 -t 500000";"dxexmachina_devstone";20;20;500000;0.0;0.0;1581154.0;0.0097;162343325.0;408.57;33.0;0.0;1200546682.0;3.021;1032385017.0;0.86;929.0;0.002;741161487.0;0.6174000000000001;20197995.0;0.0168;397.345114;0.998;0.398304929
"./build/Benchmark/dxexmachina_devstone classic  -w 30 -d 30 -t 500000";"dxexmachina_devstone";30;30;500000;0.0;0.0;3590203.0;0.0103;349510371.0;405.479;72.0;0.0;2618039412.0;3.037;2231109227.0;0.85;1427.0;0.002;1663582064.0;0.6354;50086483.0;0.0191;861.968162;0.998;0.86376606
"./build/Benchmark/dxexmachina_devstone classic  -w 30 -d 30 -t 500000";"dxexmachina_devstone";30;30;500000;0.0;0.0;3690786.0;0.0106;348630013.0;403.289;72.0;0.0;2630959016.0;3.043;2223330561.0;0.85;1427.0;0.002;1647736270.0;0.6263000000000001;51782339.0;0.0197;864.466543;0.998;0.866378359
"./build/Benchmark/dxexmachina_devstone classic  -w 30 -d 30 -t 500000";"dxexmachina_devstone";30;30;500000;0.0;0.0;3571191.0;0.0103;348292109.0;406.283;71.0;0.0;2636238964.0;3.075;2203208274.0;0.84;1427.0;0.002;1642030527.0;0.6229;50929629.0;0.019299999999999998;857.265184;0.999;0.858433949
"./build/Benchmark/dxexmachina_devstone classic  -w 30 -d 30 -t 500000";"dxexmachina_devstone";30;30;500000;0.0;0.0;3649157.0;0.0106;344942946.0;400.351;73.0;0.0;2631888106.0;3.055;2185528916.0;0.83;1427.0;0.002;1636087705.0;0.6215999999999999;53169651.0;0.0202;861.601435;0.999;0.862883446
"./build/Benchmark/dxexmachina_devstone classic  -w 30 -d 30 -t 500000";"dxexmachina_devstone";30;30;500000;0.0;0.0;2109576.0;0.0060999999999999995;347470488.0;409.661;71.0;0.0;2600514556.0;3.066;2205802918.0;0.85;1427.0;0.002;1647406519.0;0.6335000000000001;40580690.0;0.015600000000000001;848.18971;0.999;0.84941859
"./build/Benchmark/dxexmachina_devstone classic  -w 30 -d 30 -t 500000";"dxexmachina_devstone";30;30;500000;0.0;0.0;3521078.0;0.0102;346271716.0;402.706;73.0;0.0;2636176923.0;3.066;2189797098.0;0.83;1427.0;0.002;1649251569.0;0.6256;50501292.0;0.0192;859.861304;0.998;0.861342737
"./build/Benchmark/dxexmachina_devstone classic  -w 30 -d 30 -t 500000";"dxexmachina_devstone";30;30;500000;0.0;0.0;3574901.0;0.0103;348624957.0;402.333;72.0;0.0;2626046921.0;3.031;2221179407.0;0.85;1427.0;0.002;1646122163.0;0.6268;51319677.0;0.0195;866.508799;0.999;0.86776651
"./build/Benchmark/dxexmachina_devstone classic  -w 30 -d 30 -t 500000";"dxexmachina_devstone";30;30;500000;0.0;0.0;3534997.0;0.0102;347622985.0;406.023;72.0;0.0;2627731701.0;3.069;2202378889.0;0.84;1427.0;0.002;1634364576.0;0.622;52482076.0;0.02;856.16485;0.999;0.857395131
"./build/Benchmark/dxexmachina_devstone classic  -w 30 -d 30 -t 500000";"dxexmachina_devstone";30;30;500000;0.0;0.0;2878957.0;0.0083;347807903.0;398.71;75.0;0.0;2664643067.0;3.055;2217643309.0;0.83;1428.0;0.002;1689910156.0;0.6342;46004934.0;0.0173;872.333177;0.999;0.873597415
"./build/Benchmark/dxexmachina_devstone classic  -w 30 -d 30 -t 500000";"dxexmachina_devstone";30;30;500000;0.0;0.0;3517899.0;0.0101;346963392.0;399.862;72.0;0.0;2665150108.0;3.071;2204363824.0;0.83;1427.0;0.002;1671169376.0;0.627;50232130.0;0.018799999999999997;867.706775;0.999;0.868983748
"./build/Benchmark/dxexmachina_devstone classic  -w 30 -d 30 -t 500000";"dxexmachina_devstone";30;30;500000;0.0;0.0;3630684.0;0.0105;345951992.0;391.315;75.0;0.0;2705251191.0;3.06;2198797704.0;0.81;1427.0;0.002;1708869267.0;0.6317;53592049.0;0.019799999999999998;884.074966;0.998;0.885476412
"./build/Benchmark/dxexmachina_devstone classic  -w 30 -d 30 -t 500000";"dxexmachina_devstone";30;30;500000;0.0;0.0;3578664.0;0.0103;347697284.0;408.118;71.0;0.0;2625072228.0;3.081;2208286622.0;0.84;1428.0;0.002;1624829512.0;0.619;50460984.0;0.0192;851.95311;0.999;0.853107972
"./build/Benchmark/dxexmachina_devstone classic  -w 30 -d 30 -t 500000";"dxexmachina_devstone";30;30;500000;0.0;0.0;2050078.0;0.0059;346326799.0;403.3;73.0;0.0;2635551975.0;3.069;2192014382.0;0.83;1427.0;0.002;1674030576.0;0.6352;40417669.0;0.015300000000000001;858.732922;0.998;0.860307679
"./build/Benchmark/dxexmachina_devstone classic  -w 30 -d 30 -t 500000";"dxexmachina_devstone";30;30;500000;0.0;0.0;1975850.0;0.005699999999999999;346933010.0;399.542;74.0;0.0;2646335822.0;3.048;2209888373.0;0.84;1427.0;0.002;1696639417.0;0.6411;41396784.0;0.015600000000000001;868.32633;0.999;0.86963013
"./build/Benchmark/dxexmachina_devstone classic  -w 30 -d 30 -t 500000";"dxexmachina_devstone";30;30;500000;0.0;0.0;3533460.0;0.0102;346379343.0;399.175;73.0;0.0;2639745136.0;3.042;2206305005.0;0.84;1427.0;0.002;1643219822.0;0.6225;52084649.0;0.0197;867.738277;0.998;0.86908771
"./build/Benchmark/dxexmachina_devstone classic  -w 40 -d 40 -t 500000";"dxexmachina_devstone";40;40;500000;0.0;0.0;3382202.0;0.0059;576342768.0;330.386;145.0;0.0;5359560531.0;3.072;3672501600.0;0.69;2130.0;0.001;3717942308.0;0.6937000000000001;83009628.0;0.0155;1744.450213;0.999;1.746554167
"./build/Benchmark/dxexmachina_devstone classic  -w 40 -d 40 -t 500000";"dxexmachina_devstone";40;40;500000;1.0;0.0;5412690.0;0.009399999999999999;572908810.0;318.769;150.0;0.0;5539310470.0;3.082;3650989656.0;0.66;2130.0;0.001;3831701423.0;0.6917;109004116.0;0.0197;1797.25397;0.999;1.799103838
"./build/Benchmark/dxexmachina_devstone classic  -w 40 -d 40 -t 500000";"dxexmachina_devstone";40;40;500000;0.0;0.0;3374575.0;0.0059;575044906.0;332.125;147.0;0.0;5321250870.0;3.073;3675169238.0;0.69;2129.0;0.001;3675030609.0;0.6906;87159769.0;0.016399999999999998;1731.412818;0.999;1.733450341
"./build/Benchmark/dxexmachina_devstone classic  -w 40 -d 40 -t 500000";"dxexmachina_devstone";40;40;500000;0.0;0.0;4186722.0;0.0073;574743080.0;328.958;148.0;0.0;5358160207.0;3.067;3664073328.0;0.68;2130.0;0.001;3685243959.0;0.6878;99204231.0;0.018500000000000003;1747.159993;0.999;1.749769544
"./build/Benchmark/dxexmachina_devstone classic  -w 40 -d 40 -t 500000";"dxexmachina_devstone";40;40;500000;0.0;0.0;5288042.0;0.0092;574915624.0;329.871;145.0;0.0;5371735304.0;3.082;3659057202.0;0.68;2130.0;0.001;3682214200.0;0.6855;99404149.0;0.018500000000000003;1742.848423;0.999;1.744853297
"./build/Benchmark/dxexmachina_devstone classic  -w 40 -d 40 -t 500000";"dxexmachina_devstone";40;40;500000;0.0;0.0;3904587.0;0.0068000000000000005;575537099.0;332.377;147.0;0.0;5354039709.0;3.092;3670879318.0;0.69;2130.0;0.001;3689195410.0;0.6890000000000001;90337045.0;0.0169;1731.581316;0.998;1.734511168
"./build/Benchmark/dxexmachina_devstone classic  -w 40 -d 40 -t 500000";"dxexmachina_devstone";40;40;500000;0.0;0.0;5425595.0;0.009399999999999999;574208590.0;327.347;147.0;0.0;5401323889.0;3.079;3665805250.0;0.68;2131.0;0.001;3708543076.0;0.6866;108928076.0;0.0202;1754.129884;0.999;1.756154984
"./build/Benchmark/dxexmachina_devstone classic  -w 40 -d 40 -t 500000";"dxexmachina_devstone";40;40;500000;0.0;0.0;3537070.0;0.0062;574964607.0;331.947;147.0;0.0;5332171583.0;3.078;3672834716.0;0.69;2130.0;0.001;3691809817.0;0.6923999999999999;83413983.0;0.015600000000000001;1732.098978;0.999;1.734003717
"./build/Benchmark/dxexmachina_devstone classic  -w 40 -d 40 -t 500000";"dxexmachina_devstone";40;40;500000;1.0;0.0;5339568.0;0.009300000000000001;572289444.0;331.251;146.0;0.0;5314099423.0;3.076;3650646183.0;0.69;2130.0;0.001;3637589396.0;0.6845;99167952.0;0.0187;1727.65954;0.999;1.729587655
"./build/Benchmark/dxexmachina_devstone classic  -w 40 -d 40 -t 500000";"dxexmachina_devstone";40;40;500000;0.0;0.0;5254215.0;0.0092;571921632.0;331.531;147.0;0.0;5310655647.0;3.078;3644272203.0;0.69;2130.0;0.001;3629685701.0;0.6835;97820552.0;0.0184;1725.091555;0.999;1.727074606
"./build/Benchmark/dxexmachina_devstone classic  -w 40 -d 40 -t 500000";"dxexmachina_devstone";40;40;500000;0.0;0.0;5430335.0;0.009399999999999999;575258424.0;323.975;149.0;0.0;5453617137.0;3.071;3677027207.0;0.67;2130.0;0.001;3756147934.0;0.6887000000000001;109228120.0;0.02;1775.624748;0.998;1.778432532
"./build/Benchmark/dxexmachina_devstone classic  -w 40 -d 40 -t 500000";"dxexmachina_devstone";40;40;500000;0.0;0.0;5348993.0;0.009300000000000001;573375331.0;327.83;146.0;0.0;5388066203.0;3.081;3652793983.0;0.68;2129.0;0.001;3706803135.0;0.688;98826301.0;0.0183;1749.000057;0.999;1.750794024
"./build/Benchmark/dxexmachina_devstone classic  -w 40 -d 40 -t 500000";"dxexmachina_devstone";40;40;500000;0.0;0.0;3437678.0;0.006;575390434.0;331.181;147.0;0.0;5363139942.0;3.087;3672128783.0;0.68;2130.0;0.001;3702639619.0;0.6904;90942799.0;0.017;1737.387511;0.999;1.739380509
"./build/Benchmark/dxexmachina_devstone classic  -w 40 -d 40 -t 500000";"dxexmachina_devstone";40;40;500000;0.0;0.0;3419259.0;0.006;573712839.0;332.951;146.0;0.0;5295255034.0;3.073;3660077179.0;0.69;2130.0;0.001;3649666076.0;0.6892;92268645.0;0.0174;1723.115702;0.999;1.725652287
"./build/Benchmark/dxexmachina_devstone classic  -w 40 -d 40 -t 500000";"dxexmachina_devstone";40;40;500000;0.0;0.0;3585868.0;0.0062;575115653.0;331.563;147.0;0.0;5340877367.0;3.079;3673440184.0;0.69;2130.0;0.001;3688895068.0;0.6907;86928814.0;0.0163;1734.561484;0.999;1.736531008
